{
    "auth":
    {
            "login":"login",
            "password":"password"
    },
    "object_id":"225039",
    "devices":[
    {
      "id":"77",
            "params": [{
                    "values":{
                            "id":"",
                            "node_num": 2,
                            "code": "H07",
                            "physicname": "Humidity",
                            "data_type": "h",
                            "descr": "ECO-Meter-TH: Humidity",
                            "aggr_mode": "avg",
                            "measurement": "percent",
                            "source_address_dec":"00005",
                            "mathexpstr": "(((1.91 * (2.5 * data_packet /4096)) - 0.862) / 0.029)-4",
                            "pin":"R5",
                            "frame_output":"83"
                    }

            },
            {
                    "values":{
                            "id":"",
                            "node_num": 2,
                            "code": "T05",
                            "physicname": "Temperatura",
                            "data_type": "h",
                            "descr": "ECO-Meter-TH: Temperatura",
                            "aggr_mode": "avg",
                            "measurement": "deg",
                            "source_address_dec":"00005",
                            "mathexpstr": "((2.5 * data_packet /4096) - 1.098922)/(-0.0051936)",
                            "pin":"R6",
                            "frame_output":"83"
                    }

            },
            {
                    "values":{
                            "id":"",
                            "node_num": 2,
                            "code": "RSSI05",
                            "physicname": "RSSI",
                            "name_value": "RSSI",
                            "data_type": "c",
                            "descr": "ECO-Meter-TH: RSSI",
                            "aggr_mode": "avg",
                            "measurement": "float",
                            "source_address_dec":"00005",
                            "frame_output":"83"
                    }

            }, 
            {
                    "values":{
                            "id":"",
                            "node_num": 2,
                            "code": "VCC05",
                            "physicname": "VCC",
                            "name_value": "VCC",
                            "data_type": "c",
                            "descr": "ECO-Meter-TH: VCC",
                            "aggr_mode": "avg",
                            "measurement": "W",
                            "source_address_dec":"00005",
                            "frame_output":"83"
                    }

            },             
            {
                    "values":{
                            "id":"",
                            "node_num": 2,
                            "code": "T106",
                            "physicname": "Temperatura channel1",
                            "data_type": "h",
                            "descr": "Temperatura",
                            "aggr_mode": "avg",
                            "measurement": "deg",
                            "source_address_dec":"00006",
                            "mathexpstr": "((30/(1117 - 1000)) * ((((2.5 * data_packet /4096) / 29.0112) + 0.068) / 0.0001) - 256.4)+4",
                            "pin":"R1",
                            "frame_output":"83"
                    }

            },
            {
                    "values":{
                            "id":"",
                            "node_num": 2,
                            "code": "T206",
                            "physicname": "Temperatura channel2",
                            "data_type": "h",
                            "descr": "ECO-Meter-PT1000: Temperatura",
                            "aggr_mode": "avg",
                            "measurement": "deg",
                            "source_address_dec":"00006",
                            "mathexpstr": "(30/(1117 - 1000)) * ((((2.5 * data_packet /4096) / 29.0112) + 0.068) /0.0001) - 256.4",
                            "pin":"R2",
                            "frame_output":"83"
                    }

            },
            {
                    "values":{
                            "id":"",
                            "node_num": 2,
                            "code": "VCC06",
                            "physicname": "VCC",
                            "data_type": "c",
                            "descr": "ECO-Meter-PT1000: VCC",
                            "aggr_mode": "avg",
                            "measurement": "W",
                            "source_address_dec":"00006",
                            "name_value": "VCC",
                            "frame_output":"83"
                    }

            },
            {
                    "values":{
                            "id":"",
                            "node_num": 2,
                            "code": "RSSI06",
                            "physicname": "RSSI",
                            "name_value": "RSSI",
                            "data_type": "c",
                            "descr": "ECO-Meter-PT1000: RSSI",
                            "aggr_mode": "avg",
                            "measurement": "float",
                            "source_address_dec":"00006",
                            "frame_output":"83"
                    }

            },                     
            {
                    "values":{
                            "id":"",
                            "node_num": 2,
                            "code": "EE09",
                            "name_value": "reading",
                            "physicname": "Energy",
                            "data_type": "c",
                            "descr": "Energomer",
                            "aggr_mode": "avg",
                            "measurement": "kWh",
                            "source_address_dec":"00009",
                            "frame_output":"8F"
                    }

            },
            {
                    "values":{
                            "id":"",
                            "node_num": 2,
                            "code": "RSSI09",
                            "physicname": "RSSI",
                            "name_value": "RSSI",
                            "data_type": "c",
                            "descr": "RSSI Energomer",
                            "aggr_mode": "avg",
                            "measurement": "float",
                            "source_address_dec":"00009",
                            "frame_output":"8F"
                    }

            },    
            {
                    "values":{
                            "id":"",
                            "node_num": 2,
                            "code": "VCC09",
                            "physicname": "VCC",
                            "name_value": "VCC",
                            "data_type": "c",
                            "descr": "VCC Energomer",
                            "aggr_mode": "avg",
                            "measurement": "W",
                            "source_address_dec":"00009",
                            "frame_output":"8F"
                    }

            },                                        
            {
                    "values":{
                            "id":"",
                            "node_num": 2,
                            "code": "Cold07",
                            "physicname": "Cold Water",
                            "data_type": "h",
                            "descr": "Smart meter: Cold water",
                            "aggr_mode": "avg",
                            "measurement": "float",
                            "source_address_dec":"00007",
                            "pin":"L4",
                            "frame_output":"83"
                    }
            },
            {
                    "values":{
                            "id":"",
                            "node_num": 2,
                            "code": "Hot07",
                            "physicname": "Hot Water",
                            "data_type": "h",
                            "descr": "Smart meter: Hot water",
                            "aggr_mode": "avg",
                            "measurement": "float",
                            "source_address_dec":"00007",
                            "pin":"R3",
                            "frame_output":"83"
                    }
            },
            {
                    "values":{
                            "id":"",
                            "node_num": 2,
                            "code": "RSSI07",
                            "physicname": "RSSI",
                            "name_value": "RSSI",
                            "data_type": "c",
                            "descr": "Smart meter: RSSI",
                            "aggr_mode": "avg",
                            "measurement": "float",
                            "source_address_dec":"00007",
                            "frame_output":"83"
                    }

            },    
            {
                    "values":{
                            "id":"",
                            "node_num": 2,
                            "code": "VCC07",
                            "physicname": "VCC",
                            "name_value": "VCC",
                            "data_type": "c",
                            "descr": "Smart meter: VCC",
                            "aggr_mode": "avg",
                            "measurement": "W",
                            "source_address_dec":"00007",
                            "frame_output":"83"
                    }

            }         
            ]
    }
    ]

}













